Data101Project2
…
df_duration_shape

## # A tibble: 30 x 2
##    shape    duration_mins
##    <chr>            <dbl>
##  1 changed          60   
##  2 changing         34.7 
##  3 chevron           7.67
##  4 cigar            32.0 
##  5 circle           79.5 
##  6 cone           1380.  
##  7 crescent        315.  
##  8 cross            12.5 
##  9 cylinder         57.1 
## 10 delta            38.5 
## #  with 20 more rows

Look at the average duration in descending order

Looking at it in this order, sightings with shape as NA had the second longest duration on average which I find interesting. Perhaps the shape was described in the comments column, but for this project, we are not yet knowledgeable on how to deal with large amounts of string data, so I was unable to investigate further, although I am curious to see the comments for these sightings with shape as NA.

Besides that, it is interesting to see that cone shaped sightings had far longer duration on average than all of the other shapes. About 1,000 more minutes on average. This would be interesting to look into further.

df_duration_shape_desc <- df_duration_shape %>%
  arrange(desc(duration_mins))
df_duration_shape_desc

## # A tibble: 30 x 2
##    shape    duration_mins
##    <chr>            <dbl>
##  1 cone            1380. 
##  2 <NA>             783. 
##  3 sphere           363. 
##  4 other            344. 
##  5 crescent         315. 
##  6 light            220. 
##  7 unknown           92.4
##  8 flash             88.8
##  9 circle            79.5
## 10 fireball          67.1
## #  with 20 more rows
…
Look at the same data, but now with duration in hours instead of minutes

I chose to do this because I wanted to see if the data was easier to digest and comprehend with a different scale of duration.

df_hours_shape <- newufo %>% 
select(duration_hours, shape) %>%
group_by(shape) %>%
summarise_all(funs(mean))
df_hours_shape

## # A tibble: 30 x 2
##    shape    duration_hours
##    <chr>             <dbl>
##  1 changed           1    
##  2 changing          0.577
##  3 chevron           0.127
##  4 cigar             0.532
##  5 circle            1.32 
##  6 cone             23.0  
##  7 crescent          5.25 
##  8 cross             0.208
##  9 cylinder          0.951
## 10 delta             0.641
## #  with 20 more rows
…
